{
    "bassMap": [
        [
            {
                "baseUrl": "/audios/bass/",
                "note": "C1",
                "enharmony": "null",
                "tablature": "metronome-high-bip"
            },
            {
                "note": "C0",
                "enharmony": "null",
                "tablature": "metronome-low-bip"
            }
        ],       
        [
            {
                "note": "G2",
                "enharmony": "null",
                "tablature": "10",
                "10": "G2"
            },
            {
                "note": "G#2",
                "enharmony": "Ab2",
                "tablature": "11",
                "11": "G#2"
            },
            {
                "note": "A2",
                "enharmony": "null",
                "tablature": "12",
                "12": "A2"
            },
            {
                "note": "A#2",
                "enharmony": "Bb2",
                "tablature": "13",
                "13": "A#2"
            },
            {
                "note": "B2",
                "enharmony": "null",
                "tablature": "14",
                "14": "B2"
            }
        ],
        [
            {
                "note": "D2",
                "enharmony": "null",
                "tablature": "20",
                "20": "D2"
            },
            {
                "note": "D#2",
                "enharmony": "Eb2",
                "tablature": "21",
                "21": "D#2"
            },
            {
                "note": "E2",
                "enharmony": "null",
                "tablature": "22",
                "22": "E2"
            },
            {
                "note": "F2",
                "enharmony": "null",
                "tablature": "23",
                "23": "F2"
            },
            {
                "note": "F#2",
                "enharmony": "Gb2",
                "tablature": "24",
                "24": "F#2"
            }
        ],
        [
            {
                "note": "A1",
                "enharmony": "null",
                "tablature": "30",
                "30": "A1"
            },
            {
                "note": "A#1",
                "enharmony": "Bb1",
                "tablature": "31",
                "31": "A#1"
            },
            {
                "note": "B1",
                "enharmony": "null",
                "tablature": "32",
                "32": "B1"
            },
            {
                "note": "C2",
                "enharmony": "null",
                "tablature": "33",
                "33": "C2"
            },
            {
                "note": "C#2",
                "enharmony": "Db2",
                "tablature": "34",
                "34": "C#2"
            }
        ],
        [
            {
                "note": "E1",
                "enharmony": "null",
                "tablature": "40",
                "40": "E1"
            },
            {
                "note": "F1",
                "enharmony": "null",
                "tablature": "41",
                "41": "F1"
            },
            {
                "note": "F#1",
                "enharmony": "Gb1",
                "tablature": "42",
                "42": "F#1"
            },
            {
                "note": "G1",
                "enharmony": "null",
                "tablature": "43",
                "43": "G1"
            },
            {
                "note": "G#1",
                "enharmony": "Ab1",
                "tablature": "44",
                "44": "G#1"
            }
        ]
    ]
}